<?xml version="1.0" encoding="utf-8"?>
<!-- Generator: Adobe Illustrator 23.0.2, SVG Export Plug-In . SVG Version: 6.00 Build 0)  -->
<svg version="1.1" id="Layer_1" xmlns="http://www.w3.org/2000/svg" xmlns:xlink="http://www.w3.org/1999/xlink" x="0px" y="0px"
	 viewBox="0 0 54 53" style="enable-background:new 0 0 54 53;" xml:space="preserve">
<style type="text/css">
	.st0{fill:#C5C2B5;}
</style>
<rect x="-7" y="23" transform="matrix(0.7071 0.7071 -0.7071 0.7071 26.6464 -11.3302)" class="st0" width="68" height="7"/>
<rect x="-7" y="23" transform="matrix(0.7071 -0.7071 0.7071 0.7071 -10.8302 26.8536)" class="st0" width="68" height="7"/>
</svg>
