<?xml version="1.0" encoding="utf-8"?>
<!-- Generator: Adobe Illustrator 23.0.2, SVG Export Plug-In . SVG Version: 6.00 Build 0)  -->
<svg version="1.1" id="Layer_1" xmlns="http://www.w3.org/2000/svg" xmlns:xlink="http://www.w3.org/1999/xlink" x="0px" y="0px"
	 viewBox="0 0 316 315.5" style="enable-background:new 0 0 316 315.5;" xml:space="preserve">
<title>globe</title>
<desc>Created with Sketch.</desc>
<g>
	<g>
		<path d="M158,315.5C71,315.5,0.5,245,0.5,158S71,0.5,158,0.5S315.5,71,315.5,158S245,315.5,158,315.5z M158,300.5
			c78.7,0,142.5-63.8,142.5-142.5S236.7,15.5,158,15.5S15.5,79.3,15.5,158S79.3,300.5,158,300.5z"/>
		<path d="M157.5,315.5c-51.4,0-91-71.1-91-157.5s39.6-157.5,91-157.5s91,71.1,91,157.5S208.9,315.5,157.5,315.5z M157.5,300.5
			c40.8,0,76-63.2,76-142.5s-35.2-142.5-76-142.5s-76,63.2-76,142.5S116.7,300.5,157.5,300.5z"/>
		<polygon points="150.5,0.5 165.5,0.5 165.5,315.5 150.5,315.5 		"/>
		<polygon points="315.3,150.5 315.3,165.5 0.5,165.5 0.5,150.5 		"/>
		<polygon points="296,81.5 296,96.5 24,96.5 24,81.5 		"/>
		<polygon points="296,220.5 296,235.5 24,235.5 24,220.5 		"/>
	</g>
</g>
</svg>
